@startuml Class diagram for Meeting Scheduler
/'
[requirement id=RQ0014 quality=QR0002 test=TC0001]
'/

class User{
    Name
    Email
}
class MeetingInitiator {

}
class Participant{
}
class Meeting{
    location
    startTime
    endTime
}
class Room{
    roomNumber
}
User <|--Participant
User <|--MeetingInitiator
Meeting - "1..1" Room
Participant - " *..1" Meeting
MeetingInitiator - "1..*" Participant
@enduml